{
    "role_name": "role_name",
    "scenario_name": "default",
    "author": "your name",
    "description": "your description",
    "company": "your company",
    "license": ["MIT"],
    "molecule_driver": ["docker","vagrant"],
    "min_ansible_version": 2.8,
    "team_git_ssh_base": "git@gitlab.com:",
    "team_git_https_base": "https://gitlab.com",
    "team_git_base": "ansible-playground/roles",
    "project_git": {
      "ssh": "{% raw %}{{ cookiecutter.team_git_ssh_base }}{{ cookiecutter.team_git_base }}/{{ cookiecutter.template_project_git_group }}/{{ cookiecutter.project_slug }}.git{% endraw %}",
      "https": "{% raw %}{{ cookiecutter.team_git_https_base }}/{{ cookiecutter.team_git_base }}/{{ cookiecutter.template_project_git_group }}{{ cookiecutter.project_slug }}{% endraw %}"
    }
}
